{
  "data": {
      "nb_devices": 2,
      "layout_type": "verification",
      "opt_method": "",
      "array_layout": [[0,0],[100,100]],
      "notes": "",
      "array_generic_type": "",
      "optimisation_threshold": ""
  }
}
